{
  "extends": "tslint-config-airbnb",
  "rulesDirectory": [
    "node_modules/codelyzer"
  ],
  "rules": {
    "angular-whitespace": [true, "check-interpolation", "check-semicolon"],
    "banana-in-box": true,
    "templates-no-negated-async": true,
    "directive-selector": [true, "attribute", "gh", "camelCase"],
    "component-selector": [true, "element", "gh", "kebab-case"],
    "use-input-property-decorator": true,
    "use-output-property-decorator": true,
    "use-host-property-decorator": true,
    "use-view-encapsulation": true,
    "no-attribute-parameter-decorator": true,
    "no-input-rename": true,
    "no-output-rename": true,
    "no-output-on-prefix": true,
    "no-forward-ref": true,
    "use-life-cycle-interface": true,
    "contextual-life-cycle": true,
    "trackBy-function": true,
    "use-pipe-transform-interface": true,
    "pipe-naming": [true, "camelCase", "gh"],
    "component-class-suffix": true,
    "directive-class-suffix": true,
    "pipe-impure": true,
    "import-name": false,
    "no-consecutive-blank-lines": true,
    "no-console": [true, "log"],
    "no-unused-variable": true,
    "max-line-length": [true, 120],
    "member-ordering": [
      true,
      {
        "order": [
          "public-static-field",
          "public-instance-field",
          "private-static-field",
          "private-instance-field",
          "public-constructor",
          "private-constructor",
          "public-instance-method",
          "protected-instance-method",
          "private-instance-method"
        ]
      }
    ],
    "ordered-imports": [
      true,
      {
        "grouped-imports": true,
        "import-sources-order": "lowercase-last",
        "named-imports-order": "lowercase-last"
      }
    ],
    "strict-boolean-expressions": false,
    "no-increment-decrement": false
  }
}